…
*Looking at datasets*

We can look at the first few rows and columns of `sc` by typing in the
data name.

We can look at the whole dataset using
View.

``` r
## What does this data look like? Look at the first few rows, first few variables
sc
```

    ## # A tibble: 125 x 12
    ##    unitid instnm stabbr  year control preddeg adm_rate sat_avg costt4_a
    ##     <int> <chr>  <chr>  <dbl>   <int>   <int>    <dbl>   <dbl>    <int>
    ##  1 446048 Ave M… FL      2009       2       3    0.374    1104    29200
    ##  2 443410 DigiP… WA      2009       3       3    0.326    1194    23969
    ##  3 111081 Calif… CA      2009       2       3    0.283      NA    48784
    ##  4 112260 Clare… CA      2009       2       3    0.163    1389    50990
    ##  5 113537 Dell'… CA      2009       2       1    0          NA       NA
    ##  6 404338 Schil… FL      2009       3       2    0.158      NA    35408
    ##  7 117928 Argos… CA      2009       3       3    0.323      NA    35858
    ##  8 120537 Hope … CA      2009       2       3    0.386     975    33366
    ##  9 119544 The N… CA      2009       3       3    0.261      NA    19135
    ## 10 107071 Hende… AR      2009       1       3    0.313    1048    14629
    ## # … with 115 more rows, and 3 more variables: debt_mdn <dbl>,
    ## #   md_earn_wne_p6 <int>, ugds <int>
…
