…
The key difference here is now we use `mutate` instead of `summarize`. This will add a new variable to our dataset, which is the predicted level of retail sales for each level of homeownership, using the conditional mean.

``` r
pd<-pd%>% #1. overwrite the pd dataset, but start with the pd dataset:
  group_by(homeown_level)%>% #2. group it by levels of home ownership:
  mutate(mean_retail=mean(retail_percap)) #now use summarize to get average retail by home ownership
```

Look at the output below. What it says is in the first county,(Autauga County, AL) the home ownership rate is 77.7. This puts this county into the third quartile for home ownership levels. The average retail sales for counties in the third quartile is $9,481--- that's our predicted sales for this county. The actual retail sales in Autagua County are $12,003.

``` r
pd%>%select(county,homeown_rate,homeown_level,mean_retail,retail_percap)
```

    ## Source: local data frame [3,088 x 5]
    ## Groups: homeown_level [4]
    ## 
    ##                 county homeown_rate homeown_level mean_retail
    ##                  <chr>        <dbl>         <int>       <dbl>
    ## 1   Autauga County, AL         77.7             3    9481.496
    ## 2   Baldwin County, AL         74.1             3    9481.496
    ## 3   Barbour County, AL         66.7             1   11988.957
    ## 4      Bibb County, AL         81.0             4    8047.043
    ## 5    Blount County, AL         81.1             4    8047.043
    ## 6   Bullock County, AL         77.3             3    9481.496
    ## 7    Butler County, AL         70.4             2   10867.514
    ## 8   Calhoun County, AL         69.8             2   10867.514
    ## 9  Chambers County, AL         69.2             2   10867.514
    ## 10 Cherokee County, AL         74.4             3    9481.496
    ## # ... with 3,078 more rows, and 1 more variables: retail_percap <int>
…
