…
Once you get past three variables, things can get difficult. One solution is to create a new factor with one level for every single level of the predictor variables.

``` r
##This gets a little nutty
at_sum<-at%>%
  group_by(BusinessTravel,Gender,MaritalStatus,WorkLifeBalance)%>%
  summarize(attr_avg=mean(attrit))%>%
  ungroup()%>%
  arrange(attr_avg)

at_sum
```

    ## # A tibble: 70 × 5
    ##    BusinessTravel Gender MaritalStatus WorkLifeBalance attr_avg
    ##             <chr>  <chr>         <chr>           <int>    <dbl>
    ## 1      Non-Travel Female      Divorced               2        0
    ## 2      Non-Travel Female      Divorced               3        0
    ## 3      Non-Travel Female      Divorced               4        0
    ## 4      Non-Travel Female       Married               1        0
    ## 5      Non-Travel Female       Married               2        0
    ## 6      Non-Travel Female       Married               3        0
    ## 7      Non-Travel Female       Married               4        0
    ## 8      Non-Travel Female        Single               1        0
    ## 9      Non-Travel Female        Single               3        0
    ## 10     Non-Travel   Male      Divorced               2        0
    ## # ... with 60 more rows
…
at_sum$grouping<-paste0(at_sum$BusinessTravel,
                       ", ",
                       at_sum$Gender,
                       ", ",
                       at_sum$MaritalStatus,
                       ", Work/Life:",
                       at_sum$WorkLifeBalance)

at_sum$grouping<-as.factor(at_sum$grouping)

at_sum%>%select(grouping,attr_avg)
```

    ## # A tibble: 70 × 2
    ##                                     grouping attr_avg
    ##                                       <fctr>    <dbl>
    ## 1  Non-Travel, Female, Divorced, Work/Life:2        0
    ## 2  Non-Travel, Female, Divorced, Work/Life:3        0
    ## 3  Non-Travel, Female, Divorced, Work/Life:4        0
    ## 4   Non-Travel, Female, Married, Work/Life:1        0
    ## 5   Non-Travel, Female, Married, Work/Life:2        0
    ## 6   Non-Travel, Female, Married, Work/Life:3        0
    ## 7   Non-Travel, Female, Married, Work/Life:4        0
    ## 8    Non-Travel, Female, Single, Work/Life:1        0
    ## 9    Non-Travel, Female, Single, Work/Life:3        0
    ## 10   Non-Travel, Male, Divorced, Work/Life:2        0
    ## # ... with 60 more rows
…
