…
names(frl_total)<-c("state","2000","2010","2011","2012")

frl_total<-frl_total%>%gather(`2000`,`2010`,`2011`,`2012`,key=year,value=frl_students)



free_tidy<-left_join(free_total,frl_total,by=c("state","year"))

free_tidy
```

    ## # A tibble: 204 × 4
    ##                            state  year total_students frl_students
    ##                            <chr> <chr>          <dbl>        <dbl>
    ## 1   Alabama ....................  2000         728351       335143
    ## 2      Alaska ..................  2000         105333        32468
    ## 3  Arizona .....................  2000         877696       274277
    ## 4    Arkansas ..................  2000         449959       205058
    ## 5   California .................  2000        6050753      2820611
    ## 6  Colorado ....................  2000         724349       195148
    ## 7    Connecticut ...............  2000         562179       143030
    ## 8    Delaware ..................  2000         114676        37766
    ## 9  District of Columbia ........  2000          68380        47839
    ## 10    Florida ..................  2000        2434755      1079009
    ## # ... with 194 more rows
…
