…
## Just score words
#za_expand%>%select(word,score)%>%filter(score>0)%>%print()
```

Now we're ready to bring this back in. We'll sum up the scores for each post to get how positive or negative it is.

``` r
## Sum score per post
za_sum<-za_expand%>%group_by(request_id)%>%
  summarize(score=sum(score))

za_sum%>%select(request_id,score)%>%print()
```

    ## # A tibble: 5,661 x 2
    ##    request_id score
    ##    <chr>      <dbl>
    ##  1 318            0
    ##  2 t3_1005cj      5
    ##  3 t3_100mod      0
    ##  4 t3_100ws2     -9
    ##  5 t3_1017ti     -2
    ##  6 t3_101kt0     -5
    ##  7 t3_101n9x      5
    ##  8 t3_101uyy      0
    ##  9 t3_101vsv      0
    ## 10 t3_101z2h     -1
    ## # ... with 5,651 more rows
…
