…
weather_summary_2<-
  weather_df%>%
  group_by(wind_speed)%>%
  summarize(avg_delay=mean(dep_delay,na.rm=TRUE))


weather_summary
```

    ## # A tibble: 37 x 2
    ##    wind_gust avg_delay
    ##        <dbl>     <dbl>
    ##  1      16.1      73.8
    ##  2      17.3      68.1
    ##  3      18.4      74.1
    ##  4      19.6      69.9
    ##  5      20.7      72.7
    ##  6      21.9      69.5
    ##  7      23.0      71.0
    ##  8      24.2      70.2
    ##  9      25.3      69.7
    ## 10      26.5      70.6
    ## # ... with 27 more rows
…
