…
Now we'll `gather` everything, so that we have just two variables: the proportion (as a number) and the variable (as a character).

``` r
sum2<-gather(sum1,-cluster,key=variable,value=value)
sum2
```

    ## # A tibble: 72 x 3
    ##    cluster     variable     value
    ##      <int>        <chr>     <dbl>
    ##  1       1  sf.business 0.1795122
    ##  2       2  sf.business 0.0000000
    ##  3       3  sf.business 0.3006231
    ##  4       4  sf.business 0.9920182
    ##  5       1  sf.pleasure 0.4673171
    ##  6       2  sf.pleasure 0.5075301
    ##  7       3  sf.pleasure 0.4501558
    ##  8       4  sf.pleasure 0.0000000
    ##  9       1 sf.relatives 0.2321951
    ## 10       2 sf.relatives 0.3561747
    ## # ... with 62 more rows
…
