…
As this shows, the rmse for the cross validations goes from a minimumo of 0.27 to a maximum of 0.8, with a median of 0.3.

The `crossv_mc`

``` r
qf_cv<-qf%>%
  crossv_mc(n=1000,test=.2)
qf_cv
```

    ## # A tibble: 1,000 x 3
    ##             train           test   .id
    ##            <list>         <list> <chr>
    ##  1 <S3: resample> <S3: resample>  0001
    ##  2 <S3: resample> <S3: resample>  0002
    ##  3 <S3: resample> <S3: resample>  0003
    ##  4 <S3: resample> <S3: resample>  0004
    ##  5 <S3: resample> <S3: resample>  0005
    ##  6 <S3: resample> <S3: resample>  0006
    ##  7 <S3: resample> <S3: resample>  0007
    ##  8 <S3: resample> <S3: resample>  0008
    ##  9 <S3: resample> <S3: resample>  0009
    ## 10 <S3: resample> <S3: resample>  0010
    ## # ... with 990 more rows
…
    ## `mutate_each()` is deprecated.
    ## Use `mutate_all()`, `mutate_at()` or `mutate_if()` instead.
    ## To map `funs` over all variables, use `mutate_all()`

``` r
qf_cv<-qf%>%
  crossv_mc(n=1000,test=.2)
qf_cv
```

    ## # A tibble: 1,000 x 3
    ##             train           test   .id
    ##            <list>         <list> <chr>
    ##  1 <S3: resample> <S3: resample>  0001
    ##  2 <S3: resample> <S3: resample>  0002
    ##  3 <S3: resample> <S3: resample>  0003
    ##  4 <S3: resample> <S3: resample>  0004
    ##  5 <S3: resample> <S3: resample>  0005
    ##  6 <S3: resample> <S3: resample>  0006
    ##  7 <S3: resample> <S3: resample>  0007
    ##  8 <S3: resample> <S3: resample>  0008
    ##  9 <S3: resample> <S3: resample>  0009
    ## 10 <S3: resample> <S3: resample>  0010
    ## # ... with 990 more rows
…
